…
```r
library(readr)
Advertising = read_csv("data/Advertising.csv")
```

After loading data into `R`, our first step should **always** be to inspect the data. We will start by simply printing some observations in order to understand the basic structure of the data.


```r
Advertising
```

```
## # A tibble: 200 x 4
##       TV Radio Newspaper Sales
##    <dbl> <dbl>     <dbl> <dbl>
##  1 230.   37.8      69.2  22.1
##  2  44.5  39.3      45.1  10.4
##  3  17.2  45.9      69.3   9.3
##  4 152.   41.3      58.5  18.5
##  5 181.   10.8      58.4  12.9
##  6   8.7  48.9      75     7.2
##  7  57.5  32.8      23.5  11.8
##  8 120.   19.6      11.6  13.2
##  9   8.6   2.1       1     4.8
## 10 200.    2.6      21.2  10.6
## # ... with 190 more rows
```
…
Note that, we have only been dealing with numeric predictors. **Categorical predictors** are often recorded as **factor** variables in `R`. 


```r
library(tibble)
cat_pred = tibble(
  x1 = factor(c(rep("A", 10), rep("B", 10), rep("C", 10))),
  x2 = runif(n = 30),
  y  = rnorm(n = 30)
)
cat_pred
```

```
## # A tibble: 30 x 3
##    x1        x2      y
##    <fct>  <dbl>  <dbl>
##  1 A     0.528   2.04 
##  2 A     0.472  -0.326
##  3 A     0.0482  0.774
##  4 A     0.595   0.785
##  5 A     0.791   0.763
##  6 A     0.599   0.295
##  7 A     0.0279 -1.25 
##  8 A     0.396  -1.01 
##  9 A     0.106   0.751
## 10 A     0.0241 -1.31 
## # ... with 20 more rows
```
…
