…
```r
library(readr)
Advertising = read_csv("data/Advertising.csv")
```

After loading data into `R`, our first step should **always** be to inspect the data. We will start by simply printing some observations in order to understand the basic structure of the data.


```r
Advertising
```

```
## # A tibble: 200 x 4
##        TV Radio Newspaper Sales
##     <dbl> <dbl>     <dbl> <dbl>
##  1 230.   37.8      69.2  22.1 
##  2  44.5  39.3      45.1  10.4 
##  3  17.2  45.9      69.3   9.30
##  4 152.   41.3      58.5  18.5 
##  5 181.   10.8      58.4  12.9 
##  6   8.70 48.9      75.0   7.20
##  7  57.5  32.8      23.5  11.8 
##  8 120.   19.6      11.6  13.2 
##  9   8.60  2.10      1.00  4.80
## 10 200.    2.60     21.2  10.6 
## # ... with 190 more rows
```
…
Note that, we have only been dealing with numeric predictors. **Categorical predictors** are often recorded as **factor** variables in `R`. 


```r
library(tibble)
cat_pred = tibble(
  x1 = factor(c(rep("A", 10), rep("B", 10), rep("C", 10))),
  x2 = runif(n = 30),
  y  = rnorm(n = 30)
)
cat_pred
```

```
## # A tibble: 30 x 3
##    x1       x2      y
##    <fct> <dbl>  <dbl>
##  1 A     0.755 -1.95 
##  2 A     0.928 -2.20 
##  3 A     0.431 -2.80 
##  4 A     0.236  3.05 
##  5 A     0.915 -0.675
##  6 A     0.551  1.76 
##  7 A     0.171  1.80 
##  8 A     0.486  0.538
##  9 A     0.983  0.484
## 10 A     0.335  1.61 
## # ... with 20 more rows
```
…
